; ModuleID = '2.ll'
source_filename = "2.c"
target datalayout = "e-m:e-p270:32:32-p271:32:32-p272:64:64-i64:64-f80:128-n8:16:32:64-S128"
target triple = "x86_64-unknown-linux-gnu"

@.str = private unnamed_addr constant [5 x i8] c"%f \0A\00", align 1
@.str.1 = private unnamed_addr constant [56 x i8] c"Sve store instrukcije su nam neophodne za izracunavanje\00", align 1

; Function Attrs: noinline nounwind optnone uwtable
define dso_local double @f(double noundef %0, double noundef %1) #0 {
  %3 = alloca double, align 8
  %4 = alloca double, align 8
  %5 = alloca i32, align 4
  store double %0, ptr %3, align 8
  store double %1, ptr %4, align 8
  %6 = load double, ptr %3, align 8
  %7 = load double, ptr %4, align 8
  %8 = fmul double %6, %7
  %9 = fptosi double %8 to i32
  store i32 %9, ptr %5, align 4
  %10 = load i32, ptr %5, align 4
  %11 = sitofp i32 %10 to double
  ret double %11
}

; Function Attrs: noinline nounwind optnone uwtable
define dso_local i32 @main() #0 {
  %1 = alloca i32, align 4
  %2 = alloca double, align 8
  %3 = alloca double, align 8
  %4 = alloca double, align 8
  store double 5.000000e+00, ptr %2, align 8
  store double 6.000000e+00, ptr %3, align 8
  %5 = load double, ptr %2, align 8
  %6 = load double, ptr %3, align 8
  %7 = call double @f(double noundef %5, double noundef %6)
  store double %7, ptr %4, align 8
  %8 = load double, ptr %4, align 8
  %9 = call i32 (ptr, ...) @printf(ptr noundef @.str, double noundef %8)
  %10 = call i32 (ptr, ...) @printf(ptr noundef @.str.1)
  ret i32 0
}

declare i32 @printf(ptr noundef, ...) #1

attributes #0 = { noinline nounwind optnone uwtable "frame-pointer"="all" "min-legal-vector-width"="0" "no-trapping-math"="true" "stack-protector-buffer-size"="8" "target-cpu"="x86-64" "target-features"="+cx8,+fxsr,+mmx,+sse,+sse2,+x87" "tune-cpu"="generic" }
attributes #1 = { "frame-pointer"="all" "no-trapping-math"="true" "stack-protector-buffer-size"="8" "target-cpu"="x86-64" "target-features"="+cx8,+fxsr,+mmx,+sse,+sse2,+x87" "tune-cpu"="generic" }

!llvm.module.flags = !{!0, !1, !2, !3, !4}
!llvm.ident = !{!5}

!0 = !{i32 1, !"wchar_size", i32 4}
!1 = !{i32 8, !"PIC Level", i32 2}
!2 = !{i32 7, !"PIE Level", i32 2}
!3 = !{i32 7, !"uwtable", i32 2}
!4 = !{i32 7, !"frame-pointer", i32 2}
!5 = !{!"clang version 17.0.0"}
