; ModuleID = '4.ll'
source_filename = "4.c"
target datalayout = "e-m:e-p270:32:32-p271:32:32-p272:64:64-i64:64-f80:128-n8:16:32:64-S128"
target triple = "x86_64-unknown-linux-gnu"

@.str = private unnamed_addr constant [14 x i8] c"%d je paran \0A\00", align 1
@.str.1 = private unnamed_addr constant [16 x i8] c"%d je neparan \0A\00", align 1

; Function Attrs: noinline nounwind optnone uwtable
define dso_local i32 @main() #0 {
  %1 = alloca i32, align 4
  %2 = alloca i32, align 4
  %3 = alloca i32, align 4
  %4 = alloca i32, align 4
  %5 = alloca i32, align 4
  %6 = alloca i32, align 4
  store i32 2, ptr %3, align 4
  store i32 3, ptr %4, align 4
  store i32 4, ptr %5, align 4
  %7 = load i32, ptr %4, align 4
  %8 = load i32, ptr %5, align 4
  %9 = mul nsw i32 %7, %8
  %10 = load i32, ptr %4, align 4
  %11 = load i32, ptr %5, align 4
  %12 = add nsw i32 %10, %11
  store i32 %12, ptr %2, align 4
  %13 = load i32, ptr %2, align 4
  %14 = load i32, ptr %3, align 4
  %15 = srem i32 %13, %14
  %16 = icmp eq i32 %15, 0
  br i1 %16, label %17, label %20

17:                                               ; preds = %0
  %18 = load i32, ptr %2, align 4
  %19 = call i32 (ptr, ...) @printf(ptr noundef @.str, i32 noundef %18)
  br label %23

20:                                               ; preds = %0
  %21 = load i32, ptr %2, align 4
  %22 = call i32 (ptr, ...) @printf(ptr noundef @.str.1, i32 noundef %21)
  br label %23

23:                                               ; preds = %20, %17
  ret i32 0
}

declare i32 @printf(ptr noundef, ...) #1

attributes #0 = { noinline nounwind optnone uwtable "frame-pointer"="all" "min-legal-vector-width"="0" "no-trapping-math"="true" "stack-protector-buffer-size"="8" "target-cpu"="x86-64" "target-features"="+cx8,+fxsr,+mmx,+sse,+sse2,+x87" "tune-cpu"="generic" }
attributes #1 = { "frame-pointer"="all" "no-trapping-math"="true" "stack-protector-buffer-size"="8" "target-cpu"="x86-64" "target-features"="+cx8,+fxsr,+mmx,+sse,+sse2,+x87" "tune-cpu"="generic" }

!llvm.module.flags = !{!0, !1, !2, !3, !4}
!llvm.ident = !{!5}

!0 = !{i32 1, !"wchar_size", i32 4}
!1 = !{i32 8, !"PIC Level", i32 2}
!2 = !{i32 7, !"PIE Level", i32 2}
!3 = !{i32 7, !"uwtable", i32 2}
!4 = !{i32 7, !"frame-pointer", i32 2}
!5 = !{!"clang version 17.0.0"}
